Lab 3
…
This graph shows an interesting spread of marriage status across happiness ratings. It is evident that there is a lesser distribution of happy divorced and separated people than not happy. Married people are generally spread across the board, as are married people. Finally, there is a much greater amount of separated people that dont know if theyre happy than any others. Overall, this suggests that those with tough life events - divorced, widowed, and separated - identify as less happy than those who are married or have never been married.

4) Does party affiliation affect the relationship you found in the last question?

partyaff <- dat %>%
  group_by(party, marriage) %>%
  summarize(count = n()) %>%
  arrange(desc(count))

## `summarise()` regrouping output by 'party' (override with `.groups` argument)

partyaff

## # A tibble: 58 x 3
## # Groups:   party [10]
##    party              marriage      count
##    <fct>              <chr>         <int>
##  1 Not str democrat   Married        6895
##  2 Not str republican Married        5914
##  3 Strong democrat    Married        4885
##  4 Independent        Married        4819
##  5 Strong republican  Married        3941
##  6 Ind,near dem       Married        3725
##  7 Ind,near rep       Married        3226
##  8 Not str democrat   Never married  2873
##  9 Independent        Never married  2508
## 10 Ind,near dem       Never married  2176
## #  with 48 more rows
…
